{
    "id": "class-region-sheet",
    "title": "Class/Region Sheet",
    "pivotConfig": {
        "axis": {
            "z": [
                {
                    "qualifiedName": "Sales"
                },
                {
                    "qualifiedName": "Returns"
                },
                {
                    "qualifiedName": "NetSales"
                }
            ],
            "x": [
                {
                    "qualifiedName": "Product:Class"
                },
                {
                    "qualifiedName": "-:Measures"
                }
            ],
            "y": [
                {
                    "qualifiedName": "Location:Region"
                }
            ]
        }
    },
    "views": {
        "grid": {
            "config": {},
            "module": "PivotGrid"
        },
        "configMenu": {
            "module": "ConfigMenu"
        },
        "slices": {
            "module": "Slices"
        },
        "columns": {
            "module": "Columns"
        },
        "rows": {
            "module": "Rows"
        },
        "measures": {
            "module": "Measures"
        }
    },
    "module": "SheetView",
    "layout": {
        "showSheetHeader": true
    }
}