Measure,Label,Intersection,DataType,DefaultValue,DefaultAgg,DefaultSpread,RecalcRuleName,PercentBase,PercentParentDimension,Format,HAlignment,Readonly,SpreadByMetric,DerivationType,EmptyValue,BaseAmbiguous
Sales,Sales,SkuStoreDay,decimal,0d,total,ratio,,,,"{""currencyPosition"":""prefix"",""currencySymbol"":""$"",""thousandSeparated"":true,""mantissa"":2}",right,,,,,
Returns,Returns,SkuStoreDay,decimal,0d,total,ratio,,,,"{""currencyPosition"":""prefix"",""currencySymbol"":""$"",""thousandSeparated"":true,""mantissa"":2}",right,,,,,
NetSales,NetSales,SkuStoreDay,decimal,0d,total,ratio,,,,"{""currencyPosition"":""prefix"",""currencySymbol"":""$"",""thousandSeparated"":true,""mantissa"":2}",right,,,,,
ReadOnlySales,RO Sales,SkuStoreDay,decimal,,total,ratio,,,,"{""currencyPosition"":""prefix"",""currencySymbol"":""$"",""thousandSeparated"":true,""mantissa"":2}",right,true,,,,
ForecastUnits,Forecasted Units,SkuStoreDay,decimal,0d,total,ratio,,,,"{""thousandSeparated"":true,""mantissa"":0}",right,,,,,
SalesScaled,Sales (Scaled),SkuStoreDay,decimal,0d,total,ratio,,,,"{""currencyPosition"":""prefix"",""currencySymbol"":""$"",""thousandSeparated"":true,""mantissa"":2, ""scaleFactor"":100}",right,,,,,
ReturnsScaled,Returns (Scaled),SkuStoreDay,decimal,0d,total,ratio,,,,"{""currencyPosition"":""prefix"",""currencySymbol"":""$"",""thousandSeparated"":true,""mantissa"":2, ""scaleFactor"":100}",right,,,,,
